Main Software/output_tb_mips.txt
[2025-04-14 23:02:21 UTC] iverilog '-Wall' '-g2012' design.sv testbench.sv  && unbuffer vvp a.out  
design.sv:155: warning: @* is sensitive to all 32 words in array 'memory'.
design.sv:127: warning: @* is sensitive to all 1024 words in array 'memory'.

-#-#-#-#-#-#-#-#-#-#-#-#-#-#-#-#-#-#-#-#-#-#-#-#-#-#-#-#-#-#-#
Simulação do Processador MIPS - Monitor de Registro Detalhado
-#-#-#-#-#-#-#-#-#-#-#-#-#-#-#-#-#-#-#-#-#-#-#-#-#-#-#-#-#-#-#
---------------------------------------------------------------------------------------------
Tempo	PC		Instrução		$t0	$t1	$t2	$t3	$s0	ALUOp
---------------------------------------------------------------------------------------------
VCD info: dumpfile mips_waveform.vcd opened for output.
VCD warning: ignoring signals in previously scanned scope tb.dut.
VCD warning: ignoring signals in previously scanned scope tb.dut.reg_file.
6000	00000000	20080014	         x	         x	         x	         x	         x	0010
----------------------------------------------------------------------------------------------------------------------------
16000	00000000	20080014	        20	         x	         x	         x	         x	0010
----------------------------------------------------------------------------------------------------------------------------
26000	00000004	2009000f	        20	         x	         x	         x	         x	0010
----------------------------------------------------------------------------------------------------------------------------
36000	00000008	0128802a	        20	        15	         x	         x	         x	0111
----------------------------------------------------------------------------------------------------------------------------
46000	0000000c	00000000	        20	        15	         x	         x	         1	0000
----------------------------------------------------------------------------------------------------------------------------
56000	00000010	00000000	        20	        15	         x	         x	         1	0000
----------------------------------------------------------------------------------------------------------------------------
66000	00000014	00000000	        20	        15	         x	         x	         1	0000
----------------------------------------------------------------------------------------------------------------------------
76000	00000018	00000000	        20	        15	         x	         x	         1	0000
----------------------------------------------------------------------------------------------------------------------------
86000	0000001c	00000000	        20	        15	         x	         x	         1	0000
----------------------------------------------------------------------------------------------------------------------------
96000	00000020	00000000	        20	        15	         x	         x	         1	0000
----------------------------------------------------------------------------------------------------------------------------
106000	00000024	00000000	        20	        15	         x	         x	         1	0000
----------------------------------------------------------------------------------------------------------------------------
116000	00000028	00000000	        20	        15	         x	         x	         1	0000
----------------------------------------------------------------------------------------------------------------------------
126000	0000002c	00000000	        20	        15	         x	         x	         1	0000
----------------------------------------------------------------------------------------------------------------------------
136000	00000030	00000000	        20	        15	         x	         x	         1	0000
----------------------------------------------------------------------------------------------------------------------------
146000	00000034	00000000	        20	        15	         x	         x	         1	0000
----------------------------------------------------------------------------------------------------------------------------
156000	00000038	00000000	        20	        15	         x	         x	         1	0000
----------------------------------------------------------------------------------------------------------------------------
166000	0000003c	00000000	        20	        15	         x	         x	         1	0000
----------------------------------------------------------------------------------------------------------------------------
176000	00000040	00000000	        20	        15	         x	         x	         1	0000
----------------------------------------------------------------------------------------------------------------------------
186000	00000044	00000000	        20	        15	         x	         x	         1	0000
----------------------------------------------------------------------------------------------------------------------------
196000	00000048	00000000	        20	        15	         x	         x	         1	0000
----------------------------------------------------------------------------------------------------------------------------
206000	0000004c	00000000	        20	        15	         x	         x	         1	0000
----------------------------------------------------------------------------------------------------------------------------
216000	00000050	00000000	        20	        15	         x	         x	         1	0000
----------------------------------------------------------------------------------------------------------------------------

-#-#-#-#-#-#-#-#-#-#-#-#-#-#-#-#
Valor final dos registradores:
$t0 =         20 (Esperado: 20)
$t1 =         15 (Esperado: 15)
$s0 =          1 (Esperado: 1)
-#-#-#-#-#-#-#-#-#-#-#-#-#-#-#-#
________________________________________________________________________
TESTE APROVADO - Todos os valores correspondem aos resultados esperados!
________________________________________________________________________
testbench.sv:76: $finish called at 220000 (1ps)
Done
